Analysis of Crime Offences in European Countries (2022)
…
dataset_clean[dataset_clean == ":"] <- NA

dataset_clean$missing_count <- rowSums(is.na(dataset_clean))

countries_with_missing_data <- dataset_clean %>%
  filter(missing_count > 0) %>%
  select(Country, missing_count)

cat("Countries with missing data and their missing value counts:\n")

Countries with missing data and their missing value counts:

print(countries_with_missing_data)

# A tibble: 27 × 2
   Country     missing_count
   <chr>               <dbl>
 1 Belgium                 1
 2 Denmark                 3
 3 Estonia                 1
 4 Ireland                 2
 5 France                  1
 6 Cyprus                  1
 7 Latvia                  1
 8 Luxembourg              2
 9 Hungary                 2
10 Netherlands             6
# ℹ 17 more rows
…
